x_value y_value scalerX scalerY scalerX_Upv scalreY_Upv scalerX_tag scalerY_tag time
18000.0 18000.0 1618 575 1486 524 4 1 21008
15000.0 15000.0 2003 620 1819 563 4 0 21008
12000.0 12000.0 2987 693 2755 628 3 0 21007
9000.0 9000.0 4619 823 4325 751 1 0 21007
6000.0 6000.0 7311 979 6880 905 10 2 21007
3000.0 3000.0 10000 1249 9343 1166 12 3 21008
0.0 0.0 9908 1481 9266 1374 12 3 21008
-3000.0 -3000.0 7213 1575 6715 1474 13 3 21007
-6000.0 -6000.0 4798 1389 4398 1277 2 0 21007
-9000.0 -9000.0 3125 1101 2853 1013 2 1 21008
-12000.0 -12000.0 2107 768 1905 702 3 1 21008
-15000.0 -15000.0 1503 689 1353 640 1 1 21007
-18000.0 -18000.0 1187 638 1050 587 1 1 21007
